Företag,Företag
"Org. nummer:","Org. nummer:"
Privatperson,Privatperson
Produkt,Produkt
Beskrivning,Beskrivning
Beställt,Beställt
"à pris","à pris"
Summa,Summa
"7-15 days delivery","7-15 days delivery"
"3-5 days delivery","3-5 days delivery"
"5-10 days delivery","5-10 days delivery"
Varuvärde:,Varuvärde:
Frakt:,Frakt:
"Moms 25% tillkommer med:","Moms 25% tillkommer med:"
"TOTAL inkl. moms:","TOTAL inkl. moms:"
